[{
	"Name": "Tomy",
	"Age": "33",
  	"Access":"Admin",
  	"Email":"tktomy@gmail.com"
},{
	"Name": "Thomas",
	"Age": "30",
  	"Access":"Super Admin",
  	"Email":"tktomy@gmail.com"
},
{
	"Name": "Tania",
	"Age": "20",
  	"Access":"Guest",
  	"Email":"tktomy@gmail.com"
}]
